{
  "dev": {
    "s3_bucket": "lmbda",
    "app_function": "python_package.__main__",
    "log_level": "DEBUG",
    "context_header_mappings": {
      "X-Amazon-Request-ID": "requestId"
    },
    "cors": {
      "allowed_headers": [
        "DNT",
        "X-Mx-ReqToken",
        "Keep-Alive",
        "User-Agent",
        "X-Requested-With",
        "If-Modified-Since",
        "Cache-Control",
        "Content-Type",
        "Authorization",
        "X-API-Key",
        "X-Epharma-Channel",
        "X-Amazon-Request-ID"
      ],
      "allowed_methods": [
        "DELETE",
        "GET",
        "HEAD",
        "OPTIONS",
        "PATCH",
        "POST",
        "PUT"
      ],
      "allowed_origin": "*"
    },
    "binary_support": false,
    "manage_roles": false,
    "role_name": "ZappaLambdaExecution",
    "use_precompiled_packages": false,
    "vpc_config": {
      "SubnetIds": [
        "subnet-b1a583e9"
      ],
      "SecurityGroupIds": [
        "sg-a0a772d9"
      ]
    }
  }
}

